Trainee         -> [Model-1]-[Model-2]-[Model-3]
===============================================================
Imran Hossen    ->[Teacher]-[ClassRoom]-[ClassRoutine]
Alauddin Ahsan	->[AdmissionApply]-[Quota]-[Shift]
Rokiya Akter	->[Division]-[District]-[Exam]
===============================================================
Sharmin Rumpa	->[Student]-[Designation]-[Brunch]
Akram Raj		->[Countrie]-[NoticeBoard]-[ExamRoutine]
Zulhas Mia		->[Holiday]-[Room]-[Event]
================================================================
Benojir Khanom	->[Gardian]-[SubjectGroup]-[Subject]
Kawser Ahmed	->[PoliceStation]-[PostOffice]-[RulesRegulations]
Alauddin Japor	->[SchoolVersion]-[SchoolClass]-[Section]
=================================================================
Robiul Hossain	->[Staff]-[ExamResult]-[EducationSystem]


